tidyr - Reshaping Data | 資料合併與分離、變長或變寬的小技巧 | R 統計
…
long_df <- df %>% gather(key = Quarter, value = Revenue, Qtr.1:Qtr.4)
head(long_df,24)

					1
2

						long_df % gather(key = Quarter, value = Revenue, Qtr.1:Qtr.4)
head(long_df,24)

## # A tibble: 24 x 4
##    Group  Year Quarter Revenue
##  1     1  2006 Qtr.1        15
##  2     1  2007 Qtr.1        12
##  3     1  2008 Qtr.1        22
##  4     1  2009 Qtr.1        10
##  5     2  2006 Qtr.1        12
##  6     2  2007 Qtr.1        16
##  7     2  2008 Qtr.1        13
##  8     2  2009 Qtr.1        23
##  9     3  2006 Qtr.1        11
## 10     3  2007 Qtr.1        13
## # ... with 14 more rows
…
2
3
4
5
6
7
8
9
10
11
12
13
14

						## # A tibble: 24 x 4
##    Group  Year Quarter Revenue
##  1     1  2006 Qtr.1        15
##  2     1  2007 Qtr.1        12
##  3     1  2008 Qtr.1        22
##  4     1  2009 Qtr.1        10
##  5     2  2006 Qtr.1        12
##  6     2  2007 Qtr.1        16
##  7     2  2008 Qtr.1        13
##  8     2  2009 Qtr.1        23
##  9     3  2006 Qtr.1        11
## 10     3  2007 Qtr.1        13
## # ... with 14 more rows
…
